<?xml version="1.0" encoding="UTF-8"?>
<!-- Created with Inkscape (http://www.inkscape.org/) -->
<svg id="svg2" width="47" height="55" version="1.1" xmlns="http://www.w3.org/2000/svg" xmlns:cc="http://creativecommons.org/ns#" xmlns:dc="http://purl.org/dc/elements/1.1/" xmlns:rdf="http://www.w3.org/1999/02/22-rdf-syntax-ns#" xmlns:xlink="http://www.w3.org/1999/xlink">
 <defs id="defs4">
  <filter id="filter4138" x="-.14682" y="-.1199" width="1.2936" height="1.2398" color-interpolation-filters="sRGB">
   <feGaussianBlur id="feGaussianBlur4140" stdDeviation="0.14193438"/>
  </filter>
  <linearGradient id="linearGradient4171" x1="355.34" x2="269.33" y1="320.86" y2="365.31" gradientTransform="matrix(1.0115 0 0 1.0115 79.274 -7.5448)" gradientUnits="userSpaceOnUse">
   <stop id="stop3873" stop-color="#2a2a2a" offset="0"/>
   <stop id="stop3875" stop-color="#515151" offset="1"/>
  </linearGradient>
 </defs>
 <metadata id="metadata7">
  <rdf:RDF>
   <cc:Work rdf:about="">
    <dc:format>image/svg+xml</dc:format>
    <dc:type rdf:resource="http://purl.org/dc/dcmitype/StillImage"/>
    <dc:title/>
   </cc:Work>
  </rdf:RDF>
 </metadata>
 <g id="layer1" transform="translate(0 -997.36)">
  <g id="g4146" transform="matrix(.36292 0 0 .36292 -131.67 916.96)">
   <path id="path3913" d="m393.83 366.85c-0.69448 1.1996-2.5254 5.7452-2.5254 5.7452h46.467l12.753-39.017 2.3177-5.2002c-3.784-14.138-10.384-24.991-16.149-36.817 3.9427-6.6749 8.0148-13.21 10.903-20.231l-11.357-18.386-29.769 4.1534-4.4196 30.179 11.964 10.357z" fill="#fff" stroke="#023c59"/>
   <path id="path3813-8-0-4" d="m444.43 282.78c0.82311 1.0648 0.69919 1.452 2.07 3.3494l-0.10971-7.1178s2.9505 1.3488 2.7389 0.8093c-0.86345-2.1259-2.1812-4.0852-3.1623-5.8929-3.092 6.2336-6.4117 12.047-9.1319 16.445 2.4465-2.1495 5.4387-4.1371 7.595-7.5933z" fill="#000c14"/>
   <path id="path3861" d="m366.47 316.69c1.511-0.71428 78.582-4.9694 78.582-4.9694l-5.4892 48.909-74.071-1.2608z" fill="#490d0d"/>
   <path id="path4142" d="m366.43 317.06c0.54186 0 77.48-4.2395 77.48-4.2395l-4.4181 47.95s-71.707-0.18062-74.868 0c1e-5 -1.3095 1.8062-43.71 1.8062-43.71z" fill="#fff" fill-opacity=".11765"/>
   <path id="path3859" d="m366.43 317.06c0.54186 0 76.854-3.793 76.854-3.793l-3.7931 47.503s-71.707-0.18062-74.868 0c1e-5 -1.3095 1.8062-43.71 1.8062-43.71z" fill="url(#linearGradient4171)"/>
   <path id="path3813-8-0" d="m411.83 283.41c-0.23082-0.26419-1.8187 2.0014-3.8682 3.5413l0.48205-6.0602s-3.8828 0.66292-3.5987 0.15784c1.932-2.7561 3.6608-4.7671 5.4383-6.2093 0.13739 0.91813 1.3471 4.7126 1.7825 5.8748 0.80212-0.58576 0.96582-0.98407 1.6997-1.9319 0.98485 5.8186 5.6805 12.317 5.5958 14.604 0.1363-0.61641-5.9728-8.192-7.5315-9.9761z" fill="#000c14"/>
   <path id="path3813" d="m386.08 349.95c-0.29677 0.76687-1.602 18.789-1.7028 19.024 4.2602-0.0417 7.7421-1.3615 10.885-2.9904m11.28-52.121c0.82543-0.13199 6.1306-0.27904 6.1954-0.47302 6.3109-18.89 4.5659-13.914 6.5134-19.845 0.19129-0.5826-5.9178-8.1582-7.4765-9.9423-0.23082-0.26419-1.8187 2.0014-3.8682 3.5413l0.48205-6.0602s-3.8828 0.66292-3.5987 0.15784c0.2841-0.50507 5.1139-6.1872 5.1139-6.1872l-5.8399 0.85232c3.6628-4.1343 4.0653-9.0079 4.2259-14.526l3.0661-3.2144c-0.91008-12.436 18.397-8.7004 26.247-12.324 1.9276-6.5818 13.154-13.796 13.693-19.741l-18.874 0.85325c-3.2656 1.5579-6.5311 2.6312-9.7967 5.1694-0.38361-5.0764-0.64233-8.8022-0.3125-10.074-10.146 2.6013-18.417 11.574-26.835 20.049-4.2007 6.9163-0.40263 23.193-7.8287 31.694 3.8082 4.1764 7.7915 8.1427 9.9753 14.268-16.252 16.893-6.8917 23.623-22.35 44.447 7.747 10.41 13.412 21.216 16.162 32.577l17.551 3.7881 7.7024-7.8724-11.996 0.0947c-3.1298-10.174-5.5202-19.645-5.8084-29.345 3.6575-8.9418 6.6021-16.735 13.132-30.305" fill="#006ea1" stroke="#023c59" stroke-linecap="round" stroke-linejoin="round" stroke-width="1px"/>
   <path id="path3815" d="m393.58 248.23c0.625 0 21.111 0.91452 21.111 0.91452-2.4743 2.5605-2.9498 4.7215-3.125 9.0179l-18.39-6.0601z" stroke="#000" stroke-linecap="round" stroke-linejoin="round" stroke-width="1px"/>
   <path id="path4008" d="m416.13 247.74c-3.1356-2.156-7.5808-3.1564-12.122-4.0722l9.8806 0.0316v-3.504c2.3105 1.1273 4.1511 2.9595 5.9662 4.8298v-4.2616c1.9002 1.3785 3.4873 3.2936 4.7982 5.6821l5.6821-0.47351c1.0451-2.3456 2.2543-4.6474 4.5457-6.6607v3.283c1.4427-1.6814 2.7802-3.573 4.7035-4.2932 0 0-0.0316 3.6934 0 3.6934h7.0395c-3.3846 1.0178-7.3454 1.6129-8.3338 4.3879z" fill="#000c14" stroke="#000" stroke-linecap="round" stroke-linejoin="round" stroke-width="1px"/>
   <path id="path3855" d="m436.86 291.62c2.1744 0.56821 23.188 29.547 22.549 28.853-0.66494-0.72281 11.843-11.53 11.843-11.53 1.0792-4.8586 1.3227-9.7172 0.88705-14.576l-7.5315-11.238 12.943 7.3867 5.2478-1.1377 7.1897 14.396-4.7982 2.7148c-4.8284 15.374-15.489 27.443-25.128 40.09 0 0-6.6923-9.8806-9.4702-12.374-0.63032-0.56585 2.336-5.8715 2.336-5.8715-3.1818-12.104-10.296-25.059-16.068-36.713z" fill="#006ea1" stroke="#023c59" stroke-linecap="round" stroke-linejoin="round" stroke-width="1px"/>
   <path id="path3857" d="m477.68 290.52c-0.37881 0.59977-3.8196 5.5874-3.8196 5.5874l11.301 10.417" fill="none" stroke="#023c59" stroke-linecap="round" stroke-linejoin="round" stroke-width="1px"/>
   <path id="path4076" d="m424.77 260.84-7.6339 5.1339 8.2589 7.6339c-1.8594-3.6139-6.7409-6.0525-0.625-12.768z" fill-opacity=".1164"/>
   <path id="path3915" d="m432.14 254.86c-0.20641 0.17857-12.732 11.295-12.5 11.295 3.0824 4.5849 7.5884 8.763 13.17 12.634 11.548-4.1532 16.482-14.727 38.973-8.2589-10.365-7.7473-25.27-11.472-39.643-15.67z" fill="#ffe300" stroke="#a59c00" stroke-opacity=".99216" stroke-width="1px"/>
   <path id="path3817" d="m411.96 258.3c1.6306 7.512 9.0132 3.5652 14.023 0.87592 3.2082-1.3185 5.1693-4.942 6.1611-4.7869 2.4725 0.86974 10.443 3.3954 11.053 1.3014 1.4614-2.4518-1.5126-10.096-5.0316-9.6672-8.2258 1.3158-27.498-4.2993-26.205 12.277z" fill="#96d8ff" stroke="#000" stroke-width="1px"/>
   <path id="path3955" d="m424.63 267.09c0.67618 1.8256 0.94929 4.4174 2.0345 6.7218 2.0787-1.3857 4.8907-2.3951 7.1674-2.9495-3.6645-0.17325-7.711-1.1746-9.2019-3.7723z" fill="#fff"/>
   <path id="path3917" d="m466.29 269.06c-13.511-6.5975-34.664 8.4525-41.741-2.4554 0.27971 2.2456 0.60947 5.0656 2.0573 7.3946 3.2677-1.719 6.33-2.4015 9.8224-3.4464" fill="none" stroke="#a59c00" stroke-linecap="round" stroke-linejoin="round" stroke-opacity=".99216" stroke-width="1px"/>
   <path id="path3917-2" d="m438.41 261.14c-0.31291 0.0783 3.6243 0.90027 3.7533 1.1031-0.66032-1.0365-2.2003-1.4918-3.7533-1.1031z" fill="none" stroke="#a59c00" stroke-linecap="round" stroke-linejoin="round" stroke-opacity=".99216" stroke-width="1px"/>
   <path id="path4006" d="m468.82 334.46-8.7248 11.26c-3.1415-4.5067-5.8982-8.4461-9.0987-11.789 0.12197-0.74187 0.47756-1.5113 0.68241-2.0115 5.7704 6.6657 11.475 7.2434 17.141 2.5408z" fill-opacity=".2963"/>
   <path id="path4010" d="m436.58 290.76c-3.4322 2.9705-4.6015 3.6423-8.856 3.019 5.1377 2.1605 6.091 1.7676 8.856-3.019z" fill-opacity=".1164"/>
   <path id="path4010-9" d="m418.24 372.07c-6.4679 0.0561-20.813 0.0101-26.184 0.0126 0.73861-1.8594 1.412-3.4745 2.2791-5.0865 4.5444 0.7702 18.516 3.0995 23.905 5.0739z" fill-opacity=".1164"/>
   <path id="path4006-0" d="m481.17 302.18c-2.9915-2.7784-3.4627-3.2277-6.6553-6.1525 1.5188-2.2334 2.8973-4.212 3.2836-4.7911-0.17818 3.2264 0.71427 5.2002 3.3716 10.944z" fill-opacity=".2963"/>
   <path id="path4006-0-3" d="m408.84 368.32c-4.016-0.87434-12.817-2.7487-17.002-3.6628-0.63045-2.6247-1.5312-5.3751-2.2108-7.3417 2.4616 2.2914 12.388 13.268 23.457 6.9502-1.2712 1.2665-2.3344 2.2153-4.2446 4.0543z" fill-opacity=".2963"/>
   <path id="path4092" d="m432.72 279.37-1.1522 1.2785 0.99436 1.5626 1.3258-1.5152z" fill-opacity=".11765" filter="url(#filter4138)"/>
  </g>
 </g>
</svg>
